[gd_scene load_steps=3 format=2]

[ext_resource path="res://assets/ui/build_grid.png" type="Texture" id=1]

[sub_resource type="Animation" id=1]
resource_name = "GridPulse"
length = 4.0
loop = true
tracks/0/type = "value"
tracks/0/path = NodePath(".:modulate")
tracks/0/interp = 2
tracks/0/loop_wrap = true
tracks/0/imported = false
tracks/0/enabled = true
tracks/0/keys = {
"times": PoolRealArray( 0, 2, 4 ),
"transitions": PoolRealArray( 1, 1, 1 ),
"update": 0,
"values": [ Color( 1, 1, 1, 1 ), Color( 1, 1, 1, 0.568627 ), Color( 1, 1, 1, 1 ) ]
}

[node name="Grid" type="Sprite"]
modulate = Color( 1, 1, 1, 0.69596 )
scale = Vector2( 2, 2 )
texture = ExtResource( 1 )

[node name="AnimationPlayer" type="AnimationPlayer" parent="."]
autoplay = "GridPulse"
anims/GridPulse = SubResource( 1 )
