[gd_scene load_steps=3 format=2]

[ext_resource path="res://assets/blocks/wood.png" type="Texture" id=1]

[sub_resource type="RectangleShape2D" id=2]
extents = Vector2( 8, 8 )

[node name="WoodBlock" type="CollisionShape2D"]
shape = SubResource( 2 )

[node name="Sprite" type="Sprite" parent="."]
texture = ExtResource( 1 )
